{"message_type": {
    "cmocka":{
        "test_ringbuf_create_positive": {
            "msg": "Der Aufrunf von ringbuf_create(7) lieferte NULL oder es gab ein Laufzeitfehler. Überprüfen Sie die Funktion ringbuf_create!",
            "action": "replace"
        },
        "test_ringbuf_create_big": {
            "msg": "Fehler beim Initialisieren eines Ringbuffers mit einer sehr grossen Zahl! Überprüfen Sie die Funktion create_ringbuf und achten Sie darauf Speicher richtig auf dem Heap zu allokieren!",
            "action": "replace"
        },
        "test_ringbuf_append": {
            "msg": "Der Aufruf von ringbuf_append mit dem String: Test und der Size 4, hat nicht 0 zurückgegebnen. Bitte benutzen Sie 0 als Rückgabewert für erfolgreiche Operationen. ",
            "action": "replace"
        },
        "test_ringbuf_append_too_long": {
            "msg": "Der Aufruf von ringbuf_append mit einem zu großen String:Test für den Ringbuf(4), lieferte kein negative Rückgabewert. Bitte benutzen Sie negative Rückgabewerte für nicht erfolgreiche Operationen. ",
            "action": "replace"
        },
        "test_ringbuf_append_multiple_too_long": {
            "msg": "Der mehrfache Aufruf von ringbuf_append mit insgesamt zu großen Strings für den Ringbuf, lieferte kein negative Rückgabewert beim letzten Aufruf. Bitte benutzen Sie negative Rückgabewerte für nicht erfolgreiche Operationen. ",
            "action": "replace"
        },
        "test_ringbuf_read": {
            "msg": "Fehler beim hinzufügen von TestWort und anschließedem Aufruf von ringbuf_read mit size=4. Der gelesene String ist nicht wie erwartet: Test",
            "action": "replace"
        },
        "test_read_ringbuf": {
            "msg": "Das Lesen von mehr Buchstaben als der Ringbuf enthält liefert keinen negativen Rückgabewert. Bitte benutzen Sie negative Rückgabewerte für nicht erfolgreiche Operationen.",
            "action": "append"
        },
        "test_ringbuf_read_terminator": {
            "msg": "Beim Lesen via ringbuf_read wird der String-Terminator 0 nicht gesetzt!",
            "action": "replace"
        },
        "test_ringbuf_read_delimited": {
            "msg": "Beim Hinzufügen von TestW.ort und dem anschließenden Aufruf von ringbuf_read_delimited war das Ergebniss nicht TestW!",
            "action": "replace"
        },
        "test_ringbuf_read_delimited_terminator": {
            "msg": "Beim Lesen via ringbuf_read_delimited wird der String-Terminator 0 nicht gesetzt!",
            "action": "replace"
        },
        "test_ringbuf_remove": {
            "msg": "Nach dem Hinzufügen von TestWort und anschließendem Entfernen von 4 Buchstaben via ringbuf_remove, liefer ringbuf_read nicht Wort zurück",
            "action": "replace"
        },
        "test_ringbuf_wrapping": {
            "msg": "Bei einem Ringspeicher der Größe 9 resultiert das Hinzufügen von TestWort, Löschen von 4 Buchstaben und anschließendem Hinzufügen von World beim Lesen nicht WortWorld.",
            "action": "replace"
        }
    },
    "static-analyzer": {},
    "clang-tidy": {},
    "valgrind": {
        "Leak_DefinitelyLost": {
            "msg": "Das ist eine Test-message um das Programm zu testen.",
            "action": "append"
        },
        "Leak_PossiblyLost ": {
            "msg": "An der gezeigten Stelle wurde Speicher reserviert, der möglicherweise bis zum Terminieren des Programmes nicht wieder freigegeben wurde!",
            "action": "append"
        },
        "InvalidRead": {
            "msg": "An der gezeigten Stelle wirf auf Speicher zugegriffen, der nicht allokiert ist. Stelle sicher, dass genügend Speicher allokiert wurde und, dass nicht außerhalb dieser Grenze gelesen wird. Überprüfe alle Pointeropperationen und Schleifen auf OffbyOneBugs.",
            "action": "append"
        },
        "InvalidWrite": {
            "msg": "An der gezeigten Stelle wird schreibend auf Speicher zugegriffen, der nicht allokiert ist. Stelle sicher, dass genügend Speicher allokiert wurde und, dass nicht außerhalb dieser Grenze geschrieben wird. Überprüfe alle Pointeropperationen und Schleifen auf OffbyOneBugs.",
            "action": "append"
        },
        "UninitCondition": {
            "msg": "Stelle sicher, dass die Markierten Werte Initialisiert wurden!",
            "action": "append"
        },
        "Allocator sizeof operand mismatch": {
            "msg": "Der Typ der Variable stimmt nicht mit der zu allokierenden Größe überein! Wichtig Malloc gibt immer einen Pointer zurück, somit muss der Variablen Typ auch ein Pointer sein.",
            "action": "append"
        },
        "Return of address to stack-allocated memory": {
            "msg": "Hier wird probiert Stack Speicher zurückzugeben. Dies ist nicht möglich, da er nach Ende der Funktion (nach return) nicht mehr existiert! Benutze Speicher auf dem Heap (malloc)!",
            "action": "append"
        }
    },
    "makefile": {}
}}
